Goesto(Mary,Pub) 0.410009
Goesto(Mary,Disco) 0.348015
Goesto(Mary,Theatre) 0.242026
Goesto(Mary,Restaurant) 4.9995e-05
Goesto(Andrea,Pub) 0.414009
Goesto(Andrea,Disco) 0.362014
Goesto(Andrea,Theatre) 0.224028
Goesto(Andrea,Restaurant) 4.9995e-05
