Cg(M,1,P) 0.99995
Cg(M,1,W) 0.99995
Cg(M,2,P) 4.9995e-05
Cg(M,2,W) 0.99995
Cg(F,1,P) 4.9995e-05
Cg(F,1,W) 0.99995
Cg(F,2,P) 4.9995e-05
Cg(F,2,W) 0.99995
Cg(S,1,P) 4.9995e-05
Cg(S,1,W) 0.99995
Cg(S,2,P) 4.9995e-05
Cg(S,2,W) 0.99995
